[
    {
        "customer": [
            {
                "user_id": 12954,
                "user_name": "janani",
                "email": "janani@gmail.com",
                "phone": "+919080184881",
                "api_token": null,
                "device_token": null,
                "delivery_priority": "1",
                "credit_limit": null,
                "stripe_id": null,
                "card_brand": null,
                "card_last_four": null,
                "trial_ends_at": null,
                "braintree_id": null,
                "paypal_email": null,
                "remember_token": null,
                "status": "1",
                "is_deactivated": 0,
                "is_deactivated_at": null,
                "created_at": "2024-11-04T16:49:17.000Z",
                "updated_at": "2024-11-04T16:49:17.000Z",
                "wallet_balance": "0.00",
                "address": {
                    "address_id": 9803,
                    "description": null,
                    "address": null,
                    "latitude": null,
                    "longitude": null,
                    "house_no": "12",
                    "complete_address": "Anna Nagar",
                    "is_approve": 0,
                    "is_default": null,
                    "locality_id": 391,
                    "locality_name": "Incor Carmel Heights",
                    "created_at": "2024-11-04T16:49:17.000Z",
                    "updated_at": "2024-11-04T16:49:17.000Z"
                }
            },
            {
                "user_id": 12950,
                "user_name": "test121",
                "email": "test111121@example.com",
                "phone": "+912234567890",
                "api_token": null,
                "device_token": null,
                "delivery_priority": "1",
                "credit_limit": null,
                "stripe_id": null,
                "card_brand": null,
                "card_last_four": null,
                "trial_ends_at": null,
                "braintree_id": null,
                "paypal_email": null,
                "remember_token": null,
                "status": "1",
                "is_deactivated": 0,
                "is_deactivated_at": null,
                "created_at": "2024-10-25T04:42:23.000Z",
                "updated_at": "2024-10-25T04:42:23.000Z",
                "wallet_balance": "0.00",
                "address": {
                    "address_id": 9799,
                    "description": null,
                    "address": null,
                    "latitude": null,
                    "longitude": null,
                    "house_no": "12AB",
                    "complete_address": "123 Main St, Cityville",
                    "is_approve": 0,
                    "is_default": null,
                    "locality_id": 1,
                    "locality_name": "Babusapalya",
                    "created_at": "2024-10-25T04:42:24.000Z",
                    "updated_at": "2024-10-25T04:42:24.000Z"
                }
            },
            {
                "user_id": 12949,
                "user_name": "test332",
                "email": "test3232@example.com",
                "phone": "+911231161854",
                "api_token": null,
                "device_token": null,
                "delivery_priority": "1",
                "credit_limit": null,
                "stripe_id": null,
                "card_brand": null,
                "card_last_four": null,
                "trial_ends_at": null,
                "braintree_id": null,
                "paypal_email": null,
                "remember_token": null,
                "status": "1",
                "is_deactivated": 0,
                "is_deactivated_at": null,
                "created_at": "2024-10-22T10:53:12.000Z",
                "updated_at": "2024-10-22T10:53:12.000Z",
                "wallet_balance": "-1761.00",
                "address": {
                    "address_id": 9798,
                    "description": null,
                    "address": null,
                    "latitude": null,
                    "longitude": null,
                    "house_no": "12A",
                    "complete_address": "123 Main St, Cityville",
                    "is_approve": 0,
                    "is_default": null,
                    "locality_id": 1,
                    "locality_name": "Babusapalya",
                    "created_at": "2024-10-22T10:53:12.000Z",
                    "updated_at": "2024-10-22T10:53:12.000Z"
                }
            }
        ],
        "totalCount": 12905,
        "currentPage": 1,
        "limit": 10,
        "totalPage": 1291
    },
    {
        "customer": [
            {
                "user_id": 12941,
                "user_name": "raj",
                "email": "raj4@gmail.com",
                "phone": "+919894037324",
                "api_token": null,
                "device_token": null,
                "delivery_priority": "1",
                "credit_limit": null,
                "stripe_id": null,
                "card_brand": null,
                "card_last_four": null,
                "trial_ends_at": null,
                "braintree_id": null,
                "paypal_email": null,
                "remember_token": null,
                "status": "1",
                "is_deactivated": 0,
                "is_deactivated_at": null,
                "created_at": "2024-10-21T06:19:12.000Z",
                "updated_at": "2024-10-21T06:19:12.000Z",
                "wallet_balance": "0.00",
                "address": {
                    "address_id": 9790,
                    "description": null,
                    "address": null,
                    "latitude": null,
                    "longitude": null,
                    "house_no": "199",
                    "complete_address": "nagar",
                    "is_approve": 0,
                    "is_default": null,
                    "locality_id": 157,
                    "locality_name": "Doddakannelli Area",
                    "created_at": "2024-10-21T06:19:12.000Z",
                    "updated_at": "2024-10-21T06:19:12.000Z"
                }
            },
            {
                "user_id": 12940,
                "user_name": "raj",
                "email": "raj3@gmail.com",
                "phone": "+919894037324",
                "api_token": null,
                "device_token": null,
                "delivery_priority": "1",
                "credit_limit": null,
                "stripe_id": null,
                "card_brand": null,
                "card_last_four": null,
                "trial_ends_at": null,
                "braintree_id": null,
                "paypal_email": null,
                "remember_token": null,
                "status": "1",
                "is_deactivated": 0,
                "is_deactivated_at": null,
                "created_at": "2024-10-21T06:17:37.000Z",
                "updated_at": "2024-10-21T06:17:37.000Z",
                "wallet_balance": "0.00",
                "address": {
                    "address_id": 9789,
                    "description": null,
                    "address": null,
                    "latitude": null,
                    "longitude": null,
                    "house_no": "199",
                    "complete_address": "nagar",
                    "is_approve": 0,
                    "is_default": null,
                    "locality_id": 157,
                    "locality_name": "Doddakannelli Area",
                    "created_at": "2024-10-21T06:17:37.000Z",
                    "updated_at": "2024-10-21T06:17:37.000Z"
                }
            },
            {
                "user_id": 12939,
                "user_name": "raj",
                "email": "raj2@gmail.com",
                "phone": "+919894037324",
                "api_token": null,
                "device_token": null,
                "delivery_priority": "1",
                "credit_limit": null,
                "stripe_id": null,
                "card_brand": null,
                "card_last_four": null,
                "trial_ends_at": null,
                "braintree_id": null,
                "paypal_email": null,
                "remember_token": null,
                "status": "1",
                "is_deactivated": 0,
                "is_deactivated_at": null,
                "created_at": "2024-10-21T06:15:07.000Z",
                "updated_at": "2024-10-21T06:15:07.000Z",
                "wallet_balance": "0.00",
                "address": {
                    "address_id": 9788,
                    "description": null,
                    "address": null,
                    "latitude": null,
                    "longitude": null,
                    "house_no": "199",
                    "complete_address": "nagar",
                    "is_approve": 0,
                    "is_default": null,
                    "locality_id": 157,
                    "locality_name": "Doddakannelli Area",
                    "created_at": "2024-10-21T06:15:07.000Z",
                    "updated_at": "2024-10-21T06:15:07.000Z"
                }
            }
        ],
        "totalCount": 12905,
        "currentPage": 2,
        "limit": 10,
        "totalPage": 1291
    }
]